<svg width="55" height="55" viewBox="0 0 55 55" fill="none" xmlns="http://www.w3.org/2000/svg">
<g clip-path="url(#clip0)">
<path d="M50.4167 29.0277C50.2156 29.0289 50.0163 28.9904 49.8301 28.9143C49.644 28.8383 49.4747 28.7263 49.3319 28.5847L27.5 6.73746L5.66805 28.5847C5.37578 28.835 4.99983 28.9658 4.61533 28.9509C4.23082 28.9361 3.86608 28.7767 3.59399 28.5046C3.3219 28.2325 3.16251 27.8677 3.14765 27.4832C3.1328 27.0987 3.26359 26.7228 3.51388 26.4305L26.4305 3.51385C26.7168 3.2293 27.104 3.06958 27.5076 3.06958C27.9112 3.06958 28.2985 3.2293 28.5847 3.51385L51.5014 26.4305C51.7116 26.645 51.854 26.9167 51.9107 27.2116C51.9673 27.5065 51.9358 27.8116 51.8201 28.0888C51.7044 28.3659 51.5095 28.6028 51.2599 28.7698C51.0103 28.9368 50.717 29.0265 50.4167 29.0277Z" fill="#29D29D"/>
<path d="M27.5 11.9014L9.16666 30.2958V48.8889C9.16666 49.6993 9.48858 50.4764 10.0616 51.0495C10.6346 51.6225 11.4118 51.9444 12.2222 51.9444H22.9167V36.6666H32.0833V51.9444H42.7778C43.5882 51.9444 44.3653 51.6225 44.9384 51.0495C45.5114 50.4764 45.8333 49.6993 45.8333 48.8889V30.1889L27.5 11.9014Z" fill="#29D29D"/>
</g>
<defs>
<clipPath id="clip0">
<rect width="55" height="55" fill="white"/>
</clipPath>
</defs>
</svg>
